R 프로그래밍: 엑셀화일과 자료 처리
…
working directory 지정

이제 test.xlsx 엑셀 화일을 원하는 디렉토리에 저장한다.

화일을 저장한 디렉토리를 working directory로 지정해 주어야 한다. Rstudio 메뉴에서 session을 선택하면 set working directory 메뉴가 있다. choose directory를 선택하고 test.xlsx 엑셀 화일을 저장한 디렉토리를 지정해 준다.

엑셀 화일의 입력

test.xlsx 엑셀 화일의 자료를 데이터프레임 seoulpop01 에 저장해 주려면 다음과 같은 명령어를 실행한다.

seoulpop01 <- read_excel("test.xlsx", col_names = TRUE)
seoulpop01

## # A tibble: 130 x 5
##    year  name       house      pop   old65
##    <chr> <chr>      <dbl>    <dbl>   <dbl>
##  1 2014  합계     4194176 10369593 1221616
##  2 2014  종로구     73101   165344   24537
##  3 2014  중구       59960   136227   19960
##  4 2014  용산구    108429   249914   34896
##  5 2014  성동구    125814   303891   36684
##  6 2014  광진구    158524   377375   38974
##  7 2014  동대문구  159880   376319   50915
##  8 2014  중랑구    176714   423411   51995
##  9 2014  성북구    193359   475961   62066
## 10 2014  강북구    141246   338410   50841
## # … with 120 more rows
…
## # A tibble: 5 x 2
##   year  totalpop
##   <chr>    <dbl>
## 1 2014  10369593
## 2 2015  10297138
## 3 2016  10204057
## 4 2017  10124579
## 5 2018  10049607

또한 예제로서 2014년부터 2018년까지 5년간 구별 평균인구를 구해보자.

seoulpop %>% group_by(name) %>% summarise(meanpop = mean(pop)) 

## # A tibble: 25 x 2
##    name   meanpop
##    <chr>    <dbl>
##  1 강남구 569170.
##  2 강동구 453081.
##  3 강북구 330891.
##  4 강서구 600263.
##  5 관악구 525513.
##  6 광진구 373604 
##  7 구로구 448276 
##  8 금천구 255273.
##  9 노원구 568345.
## 10 도봉구 349422.
## # … with 15 more rows

다른 예제로서 2014년부터 2018년까지 5년간 구별 평균인구, 최소인구, 최대인구를 동시에 구해보자.

seoulpop %>% group_by(name) %>% summarise(minpop=min(pop), meanpop = mean(pop), maxpop=max(pop) ) 

## # A tibble: 25 x 4
##    name   minpop meanpop maxpop
##    <chr>   <dbl>   <dbl>  <dbl>
##  1 강남구 547453 569170. 583446
##  2 강동구 431920 453081. 481332
##  3 강북구 322915 330891. 338410
##  4 강서구 591653 600263. 608255
##  5 관악구 520040 525513. 531960
##  6 광진구 371063 373604  377375
##  7 구로구 438486 448276  457131
##  8 금천구 253491 255273. 258030
##  9 노원구 548160 568345. 586056
## 10 도봉구 341649 349422. 355712
## # … with 15 more rows
